^C:\USERS\LAAZY_000\PROJECTS\ICS212\HW7B\FUNC.C|C:\USERS\LAAZY_000\PROJECTS\ICS212\HW7B\MAIN.C|C:\USERS\LAAZY_000\PROJECTS\ICS212\HW7B\TCPHEADER.C
C:\USERS\LAAZY_000\PROJECTS\ICS212\RELEASE\VC120.PDB
C:\USERS\LAAZY_000\PROJECTS\ICS212\RELEASE\TCPHEADER.OBJ
C:\USERS\LAAZY_000\PROJECTS\ICS212\RELEASE\MAIN.OBJ
C:\USERS\LAAZY_000\PROJECTS\ICS212\RELEASE\FUNC.OBJ
^C:\USERS\LAAZY_000\PROJECTS\ICS212\HW7B\FUNC.C
C:\USERS\LAAZY_000\PROJECTS\ICS212\RELEASE\VC120.PDB
^C:\USERS\LAAZY_000\PROJECTS\ICS212\HW7B\MAIN.C
C:\USERS\LAAZY_000\PROJECTS\ICS212\RELEASE\VC120.PDB
^C:\USERS\LAAZY_000\PROJECTS\ICS212\HW7B\TCPHEADER.C
C:\USERS\LAAZY_000\PROJECTS\ICS212\RELEASE\VC120.PDB
