❯ 73 ❯❯  master ❯❯ ✔ ❯ make clean                                                                                                   ❮ ✱ ❮❮ ~/p/i/hw3 ❮
rm hw3main hw3main.o menu.o database.o
❯ 74 ❯❯  master ❯❯ ✔ ❯ make                                                                                                       ❮ – ✱ ❮❮ ~/p/i/hw3 ❮
cc -c hw3main.c
cc -c menu.c database.c
cc -o hw3main hw3main.o menu.o database.o
❯ 75 ❯❯  master ❯❯ ✔ ❯
