❯ 1 ❯❯  master ❯❯ ✔ ❯ make                                                                          ❮ + – ✱ ● ❮❮ ~/p/i/prj1 ❮
cc -c main.c
cc -c menu.c database.c
cc -o main main.o menu.o database.o iofunctions.o
❯ 2 ❯❯  master ❯❯ ✔ ❯ ./main debug                                                                  ❮ + – ✱ ● ❮❮ ~/p/i/prj1 ❮
DEBUG | debugmode enabled.
DEBUG | [readfile] records: 0x7ffe97a68068, filename: records.txt
DEBUG | [menuUI]0x7ffe97a681b8
DEBUG | [printBreaker]

==============================

DEBUG | [printMenu]
Database Menu:
  1) Add record.
  2) Modify record.
  3) Print record info.
  4) Print entire database.
  5) Delete record.
  6) Quit.
Enter choice (number): 2
DEBUG | [getAccountNumber]
Enter an account number: 123
There are no records to modify.
DEBUG | [printBreaker]

==============================

DEBUG | [printMenu]
Database Menu:
  1) Add record.
  2) Modify record.
  3) Print record info.
  4) Print entire database.
  5) Delete record.
  6) Quit.
Enter choice (number): 3
DEBUG | [getAccountNumber]
Enter an account number: 123
DEBUG | [printRecord] record: (nil), accountno: 123
There are no records to print.
DEBUG | [printBreaker]

==============================

DEBUG | [printMenu]
Database Menu:
  1) Add record.
  2) Modify record.
  3) Print record info.
  4) Print entire database.
  5) Delete record.
  6) Quit.
Enter choice (number): 4
DEBUG | [printAllRecords] record: (nil)
There are no records to print.
DEBUG | [printBreaker]

==============================

DEBUG | [printMenu]
Database Menu:
  1) Add record.
  2) Modify record.
  3) Print record info.
  4) Print entire database.
  5) Delete record.
  6) Quit.
Enter choice (number): 5
DEBUG | [getAccountNumber]
Enter an account number: 123
DEBUG | [deleteRecord] records: 0x7ffe97a681b8, accountno: 123
There are no records to delete.
DEBUG | [printBreaker]

==============================

DEBUG | [printMenu]
Database Menu:
  1) Add record.
  2) Modify record.
  3) Print record info.
  4) Print entire database.
  5) Delete record.
  6) Quit.
Enter choice (number): 1
DEBUG | [getAccountNumber]
Enter an account number: 123
DEBUG | [getName] name: , size: 25
Enter name: test
DEBUG | [getAddress] address: , size: 80
Enter address info: 6
Continue address input? (Y/y or N/n) y
Enter address info: 123
Continue address input? (Y/y or N/n) y
Enter address info: test
Continue address input? (Y/y or N/n) n
DEBUG | [getYearOfBirth]
Enter the account birth year: 2014
DEBUG | [addRecord] records: 0x7ffe97a681b8, accountno: 123, name: test
, address: { 6
123
test
 }, yearofbirth: 2014
DEBUG | [printBreaker]

==============================

DEBUG | [printMenu]
Database Menu:
  1) Add record.
  2) Modify record.
  3) Print record info.
  4) Print entire database.
  5) Delete record.
  6) Quit.
Enter choice (number): 3
DEBUG | [getAccountNumber]
Enter an account number: 123
DEBUG | [printRecord] record: 0xe8d830, accountno: 123
[Account] Number: 123, Name: test
, YearOfBirth: 2014
[Account] Address:
6
123
test

DEBUG | [printBreaker]

==============================

DEBUG | [printMenu]
Database Menu:
  1) Add record.
  2) Modify record.
  3) Print record info.
  4) Print entire database.
  5) Delete record.
  6) Quit.
Enter choice (number): 4
DEBUG | [printAllRecords] record: 0xe8d830
fish: “./main debug” terminated by signal SIGSEGV (Address boundary error)
❯ 3 ❯❯  master ❯❯ ✘ ❯ make                                                                 ❮ 1m21s ❮❮ + – ✱ ● ❮❮ ~/p/i/prj1 ❮
cc -c menu.c database.c
cc -c iofunctions.c
cc -o main main.o menu.o database.o iofunctions.o
❯ 4 ❯❯  master ❯❯ ✔ ❯ ./main debug                                                                  ❮ + – ✱ ● ❮❮ ~/p/i/prj1 ❮
DEBUG | debugmode enabled.
DEBUG | [readfile] records: 0x7ffd09055918, filename: records.txt
File does not exist.
DEBUG | [menuUI]0x7ffd09055a68
DEBUG | [printBreaker]

==============================

DEBUG | [printMenu]
Database Menu:
  1) Add record.
  2) Modify record.
  3) Print record info.
  4) Print entire database.
  5) Delete record.
  6) Quit.
Enter choice (number): 1
DEBUG | [getAccountNumber]
Enter an account number: 123
DEBUG | [getName] name: , size: 25
Enter name: asdf
DEBUG | [getAddress] address: , size: 80
Enter address info: test 123
Continue address input? (Y/y or N/n) y
Enter address info: 123 test
Continue address input? (Y/y or N/n) n
DEBUG | [getYearOfBirth]
Enter the account birth year: 2015
DEBUG | [addRecord] records: 0x7ffd09055a68, accountno: 123, name: asdf
, address: { test 123
123 test
 }, yearofbirth: 2015
DEBUG | [printBreaker]

==============================

DEBUG | [printMenu]
Database Menu:
  1) Add record.
  2) Modify record.
  3) Print record info.
  4) Print entire database.
  5) Delete record.
  6) Quit.
Enter choice (number): 6
Exiting...DEBUG | [writefile] records: 0x7ffd09055a18, filename: records.txt
DEBUG | [replace_str] str: test 123
123 test
, orig:
, rep: \n
fish: “./main debug” terminated by signal SIGSEGV (Address boundary error)
❯ 5 ❯❯  master ❯❯ ✘ ❯ make                                                                   ❮ 13s ❮❮ + – ✱ ● ❮❮ ~/p/i/prj1 ❮
cc -c iofunctions.c
cc -o main main.o menu.o database.o iofunctions.o
❯ 6 ❯❯  master ❯❯ ✔ ❯ ./main debug                                                                  ❮ + – ✱ ● ❮❮ ~/p/i/prj1 ❮
DEBUG | debugmode enabled.
DEBUG | [readfile] records: 0x7ffd2d3cb2b8, filename: records.txt
Read 0 records from file.
DEBUG | [menuUI]0x7ffd2d3cb408
DEBUG | [printBreaker]

==============================

DEBUG | [printMenu]
Database Menu:
  1) Add record.
  2) Modify record.
  3) Print record info.
  4) Print entire database.
  5) Delete record.
  6) Quit.
Enter choice (number): 1
DEBUG | [getAccountNumber]
Enter an account number: 123
DEBUG | [getName] name: , size: 25
Enter name: 123
DEBUG | [getAddress] address: , size: 80
Enter address info: 123
Continue address input? (Y/y or N/n) n
DEBUG | [getYearOfBirth]
Enter the account birth year: 123
DEBUG | [addRecord] records: 0x7ffd2d3cb408, accountno: 123, name: 123
, address: { 123
 }, yearofbirth: 123
DEBUG | [printBreaker]

==============================

DEBUG | [printMenu]
Database Menu:
  1) Add record.
  2) Modify record.
  3) Print record info.
  4) Print entire database.
  5) Delete record.
  6) Quit.
Enter choice (number): 6
Exiting...DEBUG | [writefile] records: 0x7ffd2d3cb3b8, filename: records.txt
DEBUG | [replace_str] str: 123
, orig:
, rep: \n
fish: “./main debug” terminated by signal SIGSEGV (Address boundary error)
❯ 7 ❯❯  master ❯❯ ✘ ❯ make                                                                    ❮ 7s ❮❮ + – ✱ ● ❮❮ ~/p/i/prj1 ❮
cc -c iofunctions.c
cc -o main main.o menu.o database.o iofunctions.o
❯ 8 ❯❯  master ❯❯ ✔ ❯ ./main                                                                        ❮ + – ✱ ● ❮❮ ~/p/i/prj1 ❮
Read 0 records from file.

==============================

Database Menu:
  1) Add record.
  2) Modify record.
  3) Print record info.
  4) Print entire database.
  5) Delete record.
  6) Quit.
Enter choice (number): 1
Enter an account number: 123
Enter name: 123
Enter address info: 132
Continue address input? (Y/y or N/n) n
Enter the account birth year: 123

==============================

Database Menu:
  1) Add record.
  2) Modify record.
  3) Print record info.
  4) Print entire database.
  5) Delete record.
  6) Quit.
Enter choice (number): 6
Exiting...1
3
fish: “./main” terminated by signal SIGSEGV (Address boundary error)
❯ 9 ❯❯  master ❯❯ ✘ ❯ make                                                                    ❮ 5s ❮❮ + – ✱ ● ❮❮ ~/p/i/prj1 ❮
cc -c iofunctions.c
cc -o main main.o menu.o database.o iofunctions.o
❯ 10 ❯❯  master ❯❯ ✔ ❯ ./main                                                                       ❮ + – ✱ ● ❮❮ ~/p/i/prj1 ❮
Read 0 records from file.

==============================

Database Menu:
  1) Add record.
  2) Modify record.
  3) Print record info.
  4) Print entire database.
  5) Delete record.
  6) Quit.
Enter choice (number): 1
Enter an account number: 123
Enter name: 123
Enter address info: 123
Continue address input? (Y/y or N/n) n
Enter the account birth year: 123

==============================

Database Menu:
  1) Add record.
  2) Modify record.
  3) Print record info.
  4) Print entire database.
  5) Delete record.
  6) Quit.
Enter choice (number): 6
Exiting...1
3
fish: “./main” terminated by signal SIGSEGV (Address boundary error)
❯ 11 ❯❯  master ❯❯ ✘ ❯ ./main                                                                 ❮ 4s ❮❮ + – ✱ ● ❮❮ ~/p/i/prj1 ❮
Read 0 records from file.

==============================

Database Menu:
  1) Add record.
  2) Modify record.
  3) Print record info.
  4) Print entire database.
  5) Delete record.
  6) Quit.
Enter choice (number): 1
Enter an account number: 123
Enter name: 123
Enter address info: 123
Continue address input? (Y/y or N/n) n
Enter the account birth year: 123

==============================

Database Menu:
  1) Add record.
  2) Modify record.
  3) Print record info.
  4) Print entire database.
  5) Delete record.
  6) Quit.
Enter choice (number): 6
Exiting...1
3
fish: “./main” terminated by signal SIGSEGV (Address boundary error)
❯ 12 ❯❯  master ❯❯ ✘ ❯ make                                                                   ❮ 5s ❮❮ + – ✱ ● ❮❮ ~/p/i/prj1 ❮
cc -c iofunctions.c
cc -o main main.o menu.o database.o iofunctions.o
❯ 13 ❯❯  master ❯❯ ✔ ❯ ./main                                                                       ❮ + – ✱ ● ❮❮ ~/p/i/prj1 ❮
Read 0 records from file.

==============================

Database Menu:
  1) Add record.
  2) Modify record.
  3) Print record info.
  4) Print entire database.
  5) Delete record.
  6) Quit.
Enter choice (number): 1
Enter an account number: 123
Enter name: 12
Enter address info: 123
Continue address input? (Y/y or N/n) n
Enter the account birth year: 123

==============================

Database Menu:
  1) Add record.
  2) Modify record.
  3) Print record info.
  4) Print entire database.
  5) Delete record.
  6) Quit.
Enter choice (number): 6
Exiting...1
3
3
fish: “./main” terminated by signal SIGSEGV (Address boundary error)
❯ 14 ❯❯  master ❯❯ ✘ ❯ make                                                                   ❮ 5s ❮❮ + – ✱ ● ❮❮ ~/p/i/prj1 ❮
cc -c iofunctions.c
iofunctions.c: In function ‘replace_str’:
iofunctions.c:140:10: error: ‘substr’ undeclared (first use in this function)
     if ( substr == NULL || replacement == NULL ) return strdup (string);
          ^
iofunctions.c:140:10: note: each undeclared identifier is reported only once for each function it appears in
iofunctions.c:140:28: error: ‘replacement’ undeclared (first use in this function)
     if ( substr == NULL || replacement == NULL ) return strdup (string);
                            ^
iofunctions.c:140:65: error: ‘string’ undeclared (first use in this function)
     if ( substr == NULL || replacement == NULL ) return strdup (string);
                                                                 ^
Makefile:18: recipe for target 'iofunctions.o' failed
make: *** [iofunctions.o] Error 1
❯ 15 ❯❯  master ❯❯ ✘ ❯ make                                                                         ❮ + – ✱ ● ❮❮ ~/p/i/prj1 ❮
cc -c iofunctions.c
iofunctions.c:130:7: error: conflicting types for ‘replace_str’
 char* replace_str(const char* string, const char* substr, const char* replacement)
       ^
In file included from iofunctions.c:18:0:
iofunctions.h:32:7: note: previous declaration of ‘replace_str’ was here
 char* replace_str(char* str, char*, char*);
       ^
In file included from iofunctions.h:25:0,
                 from iofunctions.c:18:
iofunctions.c: In function ‘replace_str’:
iofunctions.c:137:55: error: ‘str’ undeclared (first use in this function)
     DEBUG("[replace_str] str: %s, orig: %s, rep: %s", str, orig, rep);
                                                       ^
main.h:29:80: note: in definition of macro ‘DEBUG’
 #define DEBUG(fmt, ...) if(debugmode == 1) { printf("DEBUG | "); printf(fmt, ##__VA_ARGS__); printf("\n"); } else (void)0
                                                                                ^
iofunctions.c:137:55: note: each undeclared identifier is reported only once for each function it appears in
     DEBUG("[replace_str] str: %s, orig: %s, rep: %s", str, orig, rep);
                                                       ^
main.h:29:80: note: in definition of macro ‘DEBUG’
 #define DEBUG(fmt, ...) if(debugmode == 1) { printf("DEBUG | "); printf(fmt, ##__VA_ARGS__); printf("\n"); } else (void)0
                                                                                ^
iofunctions.c:137:60: error: ‘orig’ undeclared (first use in this function)
     DEBUG("[replace_str] str: %s, orig: %s, rep: %s", str, orig, rep);
                                                            ^
main.h:29:80: note: in definition of macro ‘DEBUG’
 #define DEBUG(fmt, ...) if(debugmode == 1) { printf("DEBUG | "); printf(fmt, ##__VA_ARGS__); printf("\n"); } else (void)0
                                                                                ^
iofunctions.c:137:66: error: ‘rep’ undeclared (first use in this function)
     DEBUG("[replace_str] str: %s, orig: %s, rep: %s", str, orig, rep);
                                                                  ^
main.h:29:80: note: in definition of macro ‘DEBUG’
 #define DEBUG(fmt, ...) if(debugmode == 1) { printf("DEBUG | "); printf(fmt, ##__VA_ARGS__); printf("\n"); } else (void)0
                                                                                ^
Makefile:18: recipe for target 'iofunctions.o' failed
make: *** [iofunctions.o] Error 1
❯ 16 ❯❯  master ❯❯ ✘ ❯ make                                                                         ❮ + – ✱ ● ❮❮ ~/p/i/prj1 ❮
cc -c iofunctions.c
iofunctions.c:130:7: error: conflicting types for ‘replace_str’
 char* replace_str(const char* string, const char* substr, const char* replacement)
       ^
In file included from iofunctions.c:18:0:
iofunctions.h:32:7: note: previous declaration of ‘replace_str’ was here
 char* replace_str(char* str, char*, char*);
       ^
Makefile:18: recipe for target 'iofunctions.o' failed
make: *** [iofunctions.o] Error 1
❯ 17 ❯❯  master ❯❯ ✘ ❯ make                                                                         ❮ + – ✱ ● ❮❮ ~/p/i/prj1 ❮
cc -c iofunctions.c
cc -o main main.o menu.o database.o iofunctions.o
❯ 18 ❯❯  master ❯❯ ✔ ❯ ./main                                                                       ❮ + – ✱ ● ❮❮ ~/p/i/prj1 ❮
Read 0 records from file.

==============================

Database Menu:
  1) Add record.
  2) Modify record.
  3) Print record info.
  4) Print entire database.
  5) Delete record.
  6) Quit.
Enter choice (number): 1
Enter an account number: 123
Enter name: 123
Enter address info: 123
Continue address input? (Y/y or N/n) n
Enter the account birth year: 123

==============================

Database Menu:
  1) Add record.
  2) Modify record.
  3) Print record info.
  4) Print entire database.
  5) Delete record.
  6) Quit.
Enter choice (number): 6
fish: “./main” terminated by signal SIGSEGV (Address boundary error)
❯ 19 ❯❯  master ❯❯ ✘ ❯ make                                                                   ❮ 3s ❮❮ + – ✱ ● ❮❮ ~/p/i/prj1 ❮
cc -c main.c
cc -c menu.c database.c
cc -c iofunctions.c
cc -o main main.o menu.o database.o iofunctions.o
❯ 20 ❯❯  master ❯❯ ✔ ❯ ./main                                                                       ❮ + – ✱ ● ❮❮ ~/p/i/prj1 ❮
Read 0 records from file.

==============================

Database Menu:
  1) Add record.
  2) Modify record.
  3) Print record info.
  4) Print entire database.
  5) Delete record.
  6) Quit.
Enter choice (number): 1
Enter an account number: 123
Enter name: 123
Enter address info: 123
Continue address input? (Y/y or N/n) n
Enter the account birth year: 123

==============================

Database Menu:
  1) Add record.
  2) Modify record.
  3) Print record info.
  4) Print entire database.
  5) Delete record.
  6) Quit.
Enter choice (number): 6
fish: “./main” terminated by signal SIGSEGV (Address boundary error)
❯ 21 ❯❯  master ❯❯ ✘ ❯ make                                                                   ❮ 6s ❮❮ + – ✱ ● ❮❮ ~/p/i/prj1 ❮
cc -c iofunctions.c
iofunctions.c: In function ‘writefile’:
iofunctions.c:102:16: warning: ‘return’ with a value, in function returning void
         return -1;
                ^
cc -o main main.o menu.o database.o iofunctions.o
❯ 22 ❯❯  master ❯❯ ✔ ❯ 6                                                                            ❮ + – ✱ ● ❮❮ ~/p/i/prj1 ❮
fish: Unknown command '6'
❯ 23 ❯❯  master ❯❯ ✘ ❯ make                                                                         ❮ + – ✱ ● ❮❮ ~/p/i/prj1 ❮
cc -c iofunctions.c
cc -o main main.o menu.o database.o iofunctions.o
❯ 24 ❯❯  master ❯❯ ✔ ❯ ./main                                                                       ❮ + – ✱ ● ❮❮ ~/p/i/prj1 ❮
Read 0 records from file.

==============================

Database Menu:
  1) Add record.
  2) Modify record.
  3) Print record info.
  4) Print entire database.
  5) Delete record.
  6) Quit.
Enter choice (number): 6
Exiting...Wrote 0 records to file.
❯ 25 ❯❯  master ❯❯ ✔ ❯ ./main                                                                 ❮ 1s ❮❮ + – ✱ ● ❮❮ ~/p/i/prj1 ❮
Read 0 records from file.

==============================

Database Menu:
  1) Add record.
  2) Modify record.
  3) Print record info.
  4) Print entire database.
  5) Delete record.
  6) Quit.
Enter choice (number): 1
Enter an account number: 123
Enter name: 123
Enter address info: 12
Continue address input? (Y/y or N/n) 3n
Continue address input? (Y/y or N/n) 123
Continue address input? (Y/y or N/n) Continue address input? (Y/y or N/n) n
Enter the account birth year: 123

==============================

Database Menu:
  1) Add record.
  2) Modify record.
  3) Print record info.
  4) Print entire database.
  5) Delete record.
  6) Quit.
Enter choice (number): 6
fish: “./main” terminated by signal SIGSEGV (Address boundary error)
❯ 26 ❯❯  master ❯❯ ✘ ❯ make                                                                   ❮ 7s ❮❮ + – ✱ ● ❮❮ ~/p/i/prj1 ❮
cc -c iofunctions.c
cc -o main main.o menu.o database.o iofunctions.o
❯ 27 ❯❯  master ❯❯ ✔ ❯ ./main                                                                       ❮ + – ✱ ● ❮❮ ~/p/i/prj1 ❮
Read 0 records from file.

==============================

Database Menu:
  1) Add record.
  2) Modify record.
  3) Print record info.
  4) Print entire database.
  5) Delete record.
  6) Quit.
Enter choice (number): 1
Enter an account number: 123
Enter name: 123
Enter address info: 12
Continue address input? (Y/y or N/n) n
Enter the account birth year: 123

==============================

Database Menu:
  1) Add record.
  2) Modify record.
  3) Print record info.
  4) Print entire database.
  5) Delete record.
  6) Quit.
Enter choice (number): 6
Exiting...Wrote 1 records to file.
❯ 28 ❯❯  master ❯❯ ✔ ❯ make                                                                   ❮ 4s ❮❮ + – ✱ ● ❮❮ ~/p/i/prj1 ❮
cc -c main.c
cc -c menu.c database.c
cc -o main main.o menu.o database.o iofunctions.o
❯ 29 ❯❯  master ❯❯ ✔ ❯ ./main                                                                       ❮ + – ✱ ● ❮❮ ~/p/i/prj1 ❮
Read 0 records from file.

==============================

Database Menu:
  1) Add record.
  2) Modify record.
  3) Print record info.
  4) Print entire database.
  5) Delete record.
  6) Quit.
Enter choice (number): 1
Enter an account number: 123
Enter name: 123
Enter address info: test
Continue address input? (Y/y or N/n) n
Enter the account birth year: 2015

==============================

Database Menu:
  1) Add record.
  2) Modify record.
  3) Print record info.
  4) Print entire database.
  5) Delete record.
  6) Quit.
Enter choice (number): 3
Enter an account number: 123
[Account] Number: 123, Name: 123
, YearOfBirth: 2015
[Account] Address:
test

==============================

Database Menu:
  1) Add record.
  2) Modify record.
  3) Print record info.
  4) Print entire database.
  5) Delete record.
  6) Quit.
Enter choice (number): 6
Exiting...Wrote 1 records to file.
❯ 30 ❯❯  master ❯❯ ✔ ❯ make                                                                ❮ 1m13s ❮❮ + – ✱ ● ❮❮ ~/p/i/prj1 ❮
cc -c main.c
cc -c menu.c database.c
menu.c: In function ‘getName’:
menu.c:215:13: warning: passing argument 1 of ‘getline’ from incompatible pointer type [-Wincompatible-pointer-types]
     getline(name, size, stdin);
             ^
In file included from main.h:22:0,
                 from menu.h:22,
                 from menu.c:29:
/usr/include/stdio.h:678:20: note: expected ‘char ** restrict’ but argument is of type ‘char *’
 extern _IO_ssize_t getline (char **__restrict __lineptr,
                    ^
menu.c:215:19: warning: passing argument 2 of ‘getline’ makes pointer from integer without a cast [-Wint-conversion]
     getline(name, size, stdin);
                   ^
In file included from main.h:22:0,
                 from menu.h:22,
                 from menu.c:29:
/usr/include/stdio.h:678:20: note: expected ‘size_t * restrict {aka long unsigned int * restrict}’ but argument is of type ‘int’
 extern _IO_ssize_t getline (char **__restrict __lineptr,
                    ^
cc -o main main.o menu.o database.o iofunctions.o
❯ 31 ❯❯  master ❯❯ ✔ ❯ make                                                                         ❮ + – ✱ ● ❮❮ ~/p/i/prj1 ❮
cc -c main.c
cc -c menu.c database.c
menu.c: In function ‘getName’:
menu.c:215:13: warning: passing argument 1 of ‘getline’ from incompatible pointer type [-Wincompatible-pointer-types]
     getline(name, (size_t) size, stdin);
             ^
In file included from main.h:22:0,
                 from menu.h:22,
                 from menu.c:29:
/usr/include/stdio.h:678:20: note: expected ‘char ** restrict’ but argument is of type ‘char *’
 extern _IO_ssize_t getline (char **__restrict __lineptr,
                    ^
menu.c:215:19: warning: passing argument 2 of ‘getline’ makes pointer from integer without a cast [-Wint-conversion]
     getline(name, (size_t) size, stdin);
                   ^
In file included from main.h:22:0,
                 from menu.h:22,
                 from menu.c:29:
/usr/include/stdio.h:678:20: note: expected ‘size_t * restrict {aka long unsigned int * restrict}’ but argument is of type ‘long unsigned int’
 extern _IO_ssize_t getline (char **__restrict __lineptr,
                    ^
cc -o main main.o menu.o database.o iofunctions.o
❯ 32 ❯❯  master ❯❯ ✔ ❯ make                                                                         ❮ + – ✱ ● ❮❮ ~/p/i/prj1 ❮
cc -c main.c
cc -c menu.c database.c
menu.c: In function ‘getName’:
menu.c:215:13: warning: passing argument 1 of ‘getline’ from incompatible pointer type [-Wincompatible-pointer-types]
     getline(name, &size, stdin);
             ^
In file included from main.h:22:0,
                 from menu.h:22,
                 from menu.c:29:
/usr/include/stdio.h:678:20: note: expected ‘char ** restrict’ but argument is of type ‘char *’
 extern _IO_ssize_t getline (char **__restrict __lineptr,
                    ^
menu.c:215:19: warning: passing argument 2 of ‘getline’ from incompatible pointer type [-Wincompatible-pointer-types]
     getline(name, &size, stdin);
                   ^
In file included from main.h:22:0,
                 from menu.h:22,
                 from menu.c:29:
/usr/include/stdio.h:678:20: note: expected ‘size_t * restrict {aka long unsigned int * restrict}’ but argument is of type ‘int *’
 extern _IO_ssize_t getline (char **__restrict __lineptr,
                    ^
cc -o main main.o menu.o database.o iofunctions.o
❯ 33 ❯❯  master ❯❯ ✔ ❯ make                                                                         ❮ + – ✱ ● ❮❮ ~/p/i/prj1 ❮
cc -c main.c
cc -c menu.c database.c
menu.c: In function ‘getName’:
menu.c:215:19: error: lvalue required as unary ‘&’ operand
     getline(name, &(size_t) size, stdin);
                   ^
menu.c:215:13: warning: passing argument 1 of ‘getline’ from incompatible pointer type [-Wincompatible-pointer-types]
     getline(name, &(size_t) size, stdin);
             ^
In file included from main.h:22:0,
                 from menu.h:22,
                 from menu.c:29:
/usr/include/stdio.h:678:20: note: expected ‘char ** restrict’ but argument is of type ‘char *’
 extern _IO_ssize_t getline (char **__restrict __lineptr,
                    ^
Makefile:12: recipe for target 'menu.o' failed
make: *** [menu.o] Error 1
❯ 34 ❯❯  master ❯❯ ✘ ❯ make                                                                         ❮ + – ✱ ● ❮❮ ~/p/i/prj1 ❮
cc -c main.c
cc -c menu.c database.c
menu.c: In function ‘getName’:
menu.c:215:20: error: lvalue required as unary ‘&’ operand
     getline(&name, &(size_t) size, stdin);
                    ^
Makefile:12: recipe for target 'menu.o' failed
make: *** [menu.o] Error 1
❯ 35 ❯❯  master ❯❯ ✘ ❯ make                                                                         ❮ + – ✱ ● ❮❮ ~/p/i/prj1 ❮
cc -c main.c
cc -c menu.c database.c
menu.c: In function ‘getName’:
menu.c:215:20: warning: passing argument 2 of ‘getline’ makes pointer from integer without a cast [-Wint-conversion]
     getline(&name, (size_t) & size, stdin);
                    ^
In file included from main.h:22:0,
                 from menu.h:22,
                 from menu.c:29:
/usr/include/stdio.h:678:20: note: expected ‘size_t * restrict {aka long unsigned int * restrict}’ but argument is of type ‘long unsigned int’
 extern _IO_ssize_t getline (char **__restrict __lineptr,
                    ^
cc -o main main.o menu.o database.o iofunctions.o
❯ 36 ❯❯  master ❯❯ ✔ ❯ make                                                                         ❮ + – ✱ ● ❮❮ ~/p/i/prj1 ❮
cc -c main.c
cc -c menu.c database.c
cc -o main main.o menu.o database.o iofunctions.o
❯ 37 ❯❯  master ❯❯ ✔ ❯ ./main                                                                       ❮ + – ✱ ● ❮❮ ~/p/i/prj1 ❮
Read 0 records from file.

==============================

Database Menu:
  1) Add record.
  2) Modify record.
  3) Print record info.
  4) Print entire database.
  5) Delete record.
  6) Quit.
Enter choice (number): 1
Enter an account number: 123
Enter name: test
Enter address info: 123
Continue address input? (Y/y or N/n) n
Enter the account birth year: 2015

==============================

Database Menu:
  1) Add record.
  2) Modify record.
  3) Print record info.
  4) Print entire database.
  5) Delete record.
  6) Quit.
Enter choice (number): 6
Exiting...Wrote 1 records to file.
❯ 38 ❯❯  master ❯❯ ✔ ❯ make                                                                  ❮ 12s ❮❮ + – ✱ ● ❮❮ ~/p/i/prj1 ❮
cc -c main.c
cc -c menu.c database.c
menu.c: In function ‘getName’:
menu.c:217:26: error: ‘buffer’ undeclared (first use in this function)
         char* c = strchr(buffer, '\n');
                          ^
menu.c:217:26: note: each undeclared identifier is reported only once for each function it appears in
Makefile:12: recipe for target 'menu.o' failed
make: *** [menu.o] Error 1
❯ 39 ❯❯  master ❯❯ ✘ ❯ make                                                                         ❮ + – ✱ ● ❮❮ ~/p/i/prj1 ❮
cc -c main.c
cc -c menu.c database.c
cc -o main main.o menu.o database.o iofunctions.o
❯ 40 ❯❯  master ❯❯ ✔ ❯ ./main                                                                       ❮ + – ✱ ● ❮❮ ~/p/i/prj1 ❮
fish: “./main” terminated by signal SIGSEGV (Address boundary error)
❯ 41 ❯❯  master ❯❯ ✘ ❯ make                                                                         ❮ + – ✱ ● ❮❮ ~/p/i/prj1 ❮
cc -c iofunctions.c
cc -o main main.o menu.o database.o iofunctions.o
❯ 42 ❯❯  master ❯❯ ✔ ❯ ./main                                                                       ❮ + – ✱ ● ❮❮ ~/p/i/prj1 ❮
fish: “./main” terminated by signal SIGSEGV (Address boundary error)
❯ 43 ❯❯  master ❯❯ ✘ ❯ make                                                                         ❮ + – ✱ ● ❮❮ ~/p/i/prj1 ❮
cc -c iofunctions.c
cc -o main main.o menu.o database.o iofunctions.o
❯ 44 ❯❯  master ❯❯ ✔ ❯ ./main                                                                       ❮ + – ✱ ● ❮❮ ~/p/i/prj1 ❮
fish: “./main” terminated by signal SIGSEGV (Address boundary error)
❯ 45 ❯❯  master ❯❯ ✘ ❯ make                                                                         ❮ + – ✱ ● ❮❮ ~/p/i/prj1 ❮
cc -c iofunctions.c
cc -o main main.o menu.o database.o iofunctions.o
❯ 46 ❯❯  master ❯❯ ✔ ❯ ./main                                                                       ❮ + – ✱ ● ❮❮ ~/p/i/prj1 ❮
Read 1 records from file.

==============================

Database Menu:
  1) Add record.
  2) Modify record.
  3) Print record info.
  4) Print entire database.
  5) Delete record.
  6) Quit.
Enter choice (number): 6
Exiting...Wrote 1 records to file.
❯ 47 ❯❯  master ❯❯ ✔ ❯ make                                                                   ❮ 2s ❮❮ + – ✱ ● ❮❮ ~/p/i/prj1 ❮
cc -c iofunctions.c
iofunctions.c: In function ‘readfile’:
iofunctions.c:56:25: error: assignment to expression with array type
         curRecord->name = malloc(sizeof(curRecord->name));
                         ^
iofunctions.c:57:28: error: assignment to expression with array type
         curRecord->address = malloc(sizeof(curRecord->address));
                            ^
Makefile:18: recipe for target 'iofunctions.o' failed
make: *** [iofunctions.o] Error 1
❯ 48 ❯❯  master ❯❯ ✘ ❯ make                                                                         ❮ + – ✱ ● ❮❮ ~/p/i/prj1 ❮
cc -c iofunctions.c
cc -o main main.o menu.o database.o iofunctions.o
❯ 49 ❯❯  master ❯❯ ✔ ❯ ./main                                                                       ❮ + – ✱ ● ❮❮ ~/p/i/prj1 ❮
fish: “./main” terminated by signal SIGSEGV (Address boundary error)
❯ 50 ❯❯  master ❯❯ ✘ ❯ make                                                                         ❮ + – ✱ ● ❮❮ ~/p/i/prj1 ❮
cc -c iofunctions.c
cc -o main main.o menu.o database.o iofunctions.o
❯ 51 ❯❯  master ❯❯ ✔ ❯ ./main                                                                       ❮ + – ✱ ● ❮❮ ~/p/i/prj1 ❮
fish: “./main” terminated by signal SIGSEGV (Address boundary error)
❯ 52 ❯❯  master ❯❯ ✘ ❯ make                                                                         ❮ + – ✱ ● ❮❮ ~/p/i/prj1 ❮
cc -c iofunctions.c
cc -o main main.o menu.o database.o iofunctions.o
❯ 53 ❯❯  master ❯❯ ✔ ❯ ./main                                                                       ❮ + – ✱ ● ❮❮ ~/p/i/prj1 ❮
Read 1 records from file.

==============================

Database Menu:
  1) Add record.
  2) Modify record.
  3) Print record info.
  4) Print entire database.
  5) Delete record.
  6) Quit.
Enter choice (number): ^C⏎                                                                                                    ❯ 53 ❯❯  master ❯❯ ✘ ❯ make                                                                   ❮ 2s ❮❮ + – ✱ ● ❮❮ ~/p/i/prj1 ❮
cc -c iofunctions.c
cc -o main main.o menu.o database.o iofunctions.o
❯ 54 ❯❯  master ❯❯ ✔ ❯ ./main                                                                       ❮ + – ✱ ● ❮❮ ~/p/i/prj1 ❮
test,
fish: “./main” terminated by signal SIGSEGV (Address boundary error)
❯ 55 ❯❯  master ❯❯ ✘ ❯ make                                                                         ❮ + – ✱ ● ❮❮ ~/p/i/prj1 ❮
cc -c iofunctions.c
cc -o main main.o menu.o database.o iofunctions.o
❯ 56 ❯❯  master ❯❯ ✔ ❯ ./main                                                                       ❮ + – ✱ ● ❮❮ ~/p/i/prj1 ❮
fish: “./main” terminated by signal SIGSEGV (Address boundary error)
❯ 57 ❯❯  master ❯❯ ✘ ❯ make                                                                         ❮ + – ✱ ● ❮❮ ~/p/i/prj1 ❮
cc -c iofunctions.c
cc -o main main.o menu.o database.o iofunctions.o
❯ 58 ❯❯  master ❯❯ ✔ ❯ ./main                                                                       ❮ + – ✱ ● ❮❮ ~/p/i/prj1 ❮

fish: “./main” terminated by signal SIGSEGV (Address boundary error)
❯ 59 ❯❯  master ❯❯ ✘ ❯ make                                                                         ❮ + – ✱ ● ❮❮ ~/p/i/prj1 ❮
cc -c iofunctions.c
cc -o main main.o menu.o database.o iofunctions.o
❯ 60 ❯❯  master ❯❯ ✔ ❯ ./main                                                                       ❮ + – ✱ ● ❮❮ ~/p/i/prj1 ❮
Read 1 records from file.

==============================

Database Menu:
  1) Add record.
  2) Modify record.
  3) Print record info.
  4) Print entire database.
  5) Delete record.
  6) Quit.
Enter choice (number): 6
Exiting...Wrote 1 records to file.
❯ 61 ❯❯  master ❯❯ ✔ ❯ make                                                                   ❮ 3s ❮❮ + – ✱ ● ❮❮ ~/p/i/prj1 ❮
cc -c main.c
cc -c menu.c database.c
cc -o main main.o menu.o database.o iofunctions.o
❯ 62 ❯❯  master ❯❯ ✔ ❯ make                                                                         ❮ + – ✱ ● ❮❮ ~/p/i/prj1 ❮
make: 'main' is up to date.
❯ 63 ❯❯  master ❯❯ ✔ ❯ ./main                                                                       ❮ + – ✱ ● ❮❮ ~/p/i/prj1 ❮
Read 1 records from file.

==============================

Database Menu:
  1) Add record.
  2) Modify record.
  3) Print record info.
  4) Print entire database.
  5) Delete record.
  6) Quit.
Enter choice (number): 4
[Account] Number: 123, Name: test,, YearOfBirth: 2014
[Account] Address:


==============================

Database Menu:
  1) Add record.
  2) Modify record.
  3) Print record info.
  4) Print entire database.
  5) Delete record.
  6) Quit.
Enter choice (number): ^C⏎                                                                                                    ❯ 63 ❯❯  master ❯❯ ✘ ❯ make                                                                ❮ 1m19s ❮❮ + – ✱ ● ❮❮ ~/p/i/prj1 ❮
cc -c iofunctions.c
cc -o main main.o menu.o database.o iofunctions.o
❯ 64 ❯❯  master ❯❯ ✔ ❯ ./main                                                                       ❮ + – ✱ ● ❮❮ ~/p/i/prj1 ❮
Read 1 records from file.

==============================

Database Menu:
  1) Add record.
  2) Modify record.
  3) Print record info.
  4) Print entire database.
  5) Delete record.
  6) Quit.
Enter choice (number): 4
[Account] Number: 123, Name: test, YearOfBirth: 2014
[Account] Address:
test

==============================

Database Menu:
  1) Add record.
  2) Modify record.
  3) Print record info.
  4) Print entire database.
  5) Delete record.
  6) Quit.
Enter choice (number): ^C⏎                                                                                                    ❯ 64 ❯❯  master ❯❯ ✘ ❯ make                                                                ❮ 1m12s ❮❮ + – ✱ ● ❮❮ ~/p/i/prj1 ❮
cc -c iofunctions.c
cc -o main main.o menu.o database.o iofunctions.o
❯ 65 ❯❯  master ❯❯ ✔ ❯ ./main                                                                       ❮ + – ✱ ● ❮❮ ~/p/i/prj1 ❮
Read 1 records from file.

==============================

Database Menu:
  1) Add record.
  2) Modify record.
  3) Print record info.
  4) Print entire database.
  5) Delete record.
  6) Quit.
Enter choice (number): 4
[Account] Number: 123, Name: test Address, YearOfBirth: 2014
[Account] Address:


==============================

Database Menu:
  1) Add record.
  2) Modify record.
  3) Print record info.
  4) Print entire database.
  5) Delete record.
  6) Quit.
Enter choice (number): ^C⏎                                                                                                    ❯ 65 ❯❯  master ❯❯ ✘ ❯ make                                                                ❮ 1m42s ❮❮ + – ✱ ● ❮❮ ~/p/i/prj1 ❮
cc -c iofunctions.c
cc -o main main.o menu.o database.o iofunctions.o
❯ 66 ❯❯  master ❯❯ ✔ ❯ ./main                                                                       ❮ + – ✱ ● ❮❮ ~/p/i/prj1 ❮
Read 0 records from file.

==============================

Database Menu:
  1) Add record.
  2) Modify record.
  3) Print record info.
  4) Print entire database.
  5) Delete record.
  6) Quit.
Enter choice (number): 1
Enter an account number: 123
Enter name: test 123
Enter address info: asdf asdf
Continue address input? (Y/y or N/n) n
Enter the account birth year: 2015

==============================

Database Menu:
  1) Add record.
  2) Modify record.
  3) Print record info.
  4) Print entire database.
  5) Delete record.
  6) Quit.
Enter choice (number): 6
Exiting...
Wrote 1 records to file.
❯ 67 ❯❯  master ❯❯ ✔ ❯ ./main                                                                ❮ 11s ❮❮ + – ✱ ● ❮❮ ~/p/i/prj1 ❮
Read 1 records from file.

==============================

Database Menu:
  1) Add record.
  2) Modify record.
  3) Print record info.
  4) Print entire database.
  5) Delete record.
  6) Quit.
Enter choice (number): 4
[Account] Number: 123, Name: test 123, YearOfBirth: 2015
[Account] Address:
asdf asdf

==============================

Database Menu:
  1) Add record.
  2) Modify record.
  3) Print record info.
  4) Print entire database.
  5) Delete record.
  6) Quit.
Enter choice (number): 1
Enter an account number: 24
Enter name: 123
Enter address info: 123
Continue address input? (Y/y or N/n) n
Enter the account birth year: 133

==============================

Database Menu:
  1) Add record.
  2) Modify record.
  3) Print record info.
  4) Print entire database.
  5) Delete record.
  6) Quit.
Enter choice (number): 5
Enter an account number: 24
[Deleting] Number: 24

==============================

Database Menu:
  1) Add record.
  2) Modify record.
  3) Print record info.
  4) Print entire database.
  5) Delete record.
  6) Quit.
Enter choice (number): 2
Enter an account number: 123
Enter address info: asdf
Continue address input? (Y/y or N/n) v
Continue address input? (Y/y or N/n) b
Continue address input? (Y/y or N/n) n
[Modifying] Number: 123

==============================

Database Menu:
  1) Add record.
  2) Modify record.
  3) Print record info.
  4) Print entire database.
  5) Delete record.
  6) Quit.
Enter choice (number): 6
Exiting...
Wrote 1 records to file.
❯ 68 ❯❯  master ❯❯ ✔ ❯ make                                                                  ❮ 36s ❮❮ + – ✱ ● ❮❮ ~/p/i/prj1 ❮
cc -c menu.c database.c
cc -o main main.o menu.o database.o iofunctions.o
❯ 69 ❯❯  master ❯❯ ✔ ❯ ./main                                                                       ❮ + – ✱ ● ❮❮ ~/p/i/prj1 ❮
Read 1 records from file.

==============================

Database Menu:
  1) Add record.
  2) Modify record.
  3) Print record info.
  4) Print entire database.
  5) Delete record.
  6) Quit.
Enter choice (number): 2
Enter an account number: 123
Enter address info: testmodify
Continue address input? (Y/y or N/n) n
[Modifying] Number: 123

==============================

Database Menu:
  1) Add record.
  2) Modify record.
  3) Print record info.
  4) Print entire database.
  5) Delete record.
  6) Quit.
Enter choice (number): 6
Exiting...
Wrote 1 records to file.
❯ 70 ❯❯  master ❯❯ ✔ ❯ ./main                                                                 ❮ 9s ❮❮ + – ✱ ● ❮❮ ~/p/i/prj1 ❮
Read 1 records from file.

==============================

Database Menu:
  1) Add record.
  2) Modify record.
  3) Print record info.
  4) Print entire database.
  5) Delete record.
  6) Quit.
Enter choice (number): 3
Enter an account number: 123
[Account] Number: 123, Name: test 123, YearOfBirth: 2015
[Account] Address:
testmodify

==============================

Database Menu:
  1) Add record.
  2) Modify record.
  3) Print record info.
  4) Print entire database.
  5) Delete record.
  6) Quit.
Enter choice (number): ^C⏎                                                                                                    ❯ 70 ❯❯  master ❯❯ ✘ ❯                                                                        ❮ 6s ❮❮ + – ✱ ● ❮❮ ~/p/i/prj1 ❮
❯ 70 ❯❯  master ❯❯ ✘ ❯ ./main debugnot                                                        ❮ 6s ❮❮ + – ✱ ● ❮❮ ~/p/i/prj1 ❮
hw3main: Invalid argument (2)
Usage: hw3main [debug]⏎                                                                                                       ❯ 71 ❯❯  master ❯❯ ✘ ❯                                                                              ❮ + – ✱ ● ❮❮ ~/p/i/prj1 ❮
❯ 71 ❯❯  master ❯❯ ✘ ❯ make                                                                         ❮ + – ✱ ● ❮❮ ~/p/i/prj1 ❮
cc -c main.c
cc -c menu.c database.c
cc -o main main.o menu.o database.o iofunctions.o
❯ 72 ❯❯  master ❯❯ ✔ ❯ ./main                                                                       ❮ + – ✱ ● ❮❮ ~/p/i/prj1 ❮
Read 1 records from file.

==============================

Database Menu:
  1) Add record.
  2) Modify record.
  3) Print record info.
  4) Print entire database.
  5) Delete record.
  6) Quit.
Enter choice (number): 123
Please enter a valid item number.

==============================

Database Menu:
  1) Add record.
  2) Modify record.
  3) Print record info.
  4) Print entire database.
  5) Delete record.
  6) Quit.
Enter choice (number): 6
Exiting...
Wrote 1 records to file.
❯ 73 ❯❯  master ❯❯ ✔ ❯                                                                        ❮ 4s ❮❮ + – ✱ ● ❮❮ ~/p/i/prj1 ❮
