Name: One AccountNo: 1 Balance: 83.000000
Name: Two AccountNo: 2 Balance: 86.000000
Name: Three AccountNo: 3 Balance: 77.000000
Name: Four AccountNo: 4 Balance: 15.000000
Name: Five AccountNo: 5 Balance: 93.000000
